Classifier Model Evaluation - My First Website
…
3.lift-curve

描述不同阈值下,lift与depth的轨迹. 衡量与不利用模型相比,预测能力提高了多少.

分类器获得的正例数量和不是用分类器随机获得的正例数量的比例.

x-轴:depth值

y-轴:

lift-curve在很高的lift值保持一段时间后,迅速下降为1为优(偏离baseline足够远)

lift_curve(two_class_example, truth, Class1)

## # A tibble: 501 x 4
##       .n .n_events .percent_tested  .lift
##    <dbl>     <dbl>           <dbl>  <dbl>
##  1     0         0             0   NaN   
##  2     1         1             0.2   1.94
##  3     2         2             0.4   1.94
##  4     3         3             0.6   1.94
##  5     4         4             0.8   1.94
##  6     5         5             1     1.94
##  7     6         6             1.2   1.94
##  8     7         7             1.4   1.94
##  9     8         8             1.6   1.94
## 10     9         9             1.8   1.94
## # ... with 491 more rows
…
4.gain-curve

描述不同阈值下,precision与depth的轨迹.

x-轴:depth值

y-轴:累计gain值

gain-curve快速上升到1为优.

gain_curve(two_class_example, truth, Class1)

## # A tibble: 501 x 4
##       .n .n_events .percent_tested .percent_found
##    <dbl>     <dbl>           <dbl>          <dbl>
##  1     0         0             0            0    
##  2     1         1             0.2          0.388
##  3     2         2             0.4          0.775
##  4     3         3             0.6          1.16 
##  5     4         4             0.8          1.55 
##  6     5         5             1            1.94 
##  7     6         6             1.2          2.33 
##  8     7         7             1.4          2.71 
##  9     8         8             1.6          3.10 
## 10     9         9             1.8          3.49 
## # ... with 491 more rows
…
